Jira Issue Check

  bc1358a9f4ae3b3fe901e71232856f2ef251361d configuration
{
   "author_validator_enabled": false,
   "jira_issue_check_enabled": true,
   "jira_jql": "",
   "verbose": false
}
  bc1358a9f4ae3b3fe901e71232856f2ef251361d
    commit message: JIC-22132 JIC-22133
    following jql failed to return an issue: id=JIC-22132
    following jql failed to return an issue: id=JIC-22133

