Jira Issue Check
9c732088f355b40cc1dce7ce59e7a60f839bbd4d
{
   "author_validator_enabled": false,
   "jira_issue_check_enabled": true,
   "jira_jql": "",
   "verbose": true
}


['4600bae46acaf535af89e026182474bce501b15c', '142317923dccdf1f62c7796bd1edae8687ef9793', '9c732088f355b40cc1dce7ce59e7a60f839bbd4d']
4600bae46acaf535af89e026182474bce501b15c
JIC-22132 JIC-1
['JIC-22132', 'JIC-1']
JIC-22132
id=JIC-22132
{
   "errorMessages": [
      "An issue with key 'JIC-22132' does not exist for field 'id'."
   ],
   "errors": {}
}
jql failed
  id=JIC-22132
jql-failed
JIC-1
id=JIC-1
{
   "expand": "names,schema",
   "issues": [
      {
         "expand": "operations,editmeta,changelog,transitions,renderedFields",
         "fields": {
            "assignee": {
               "active": true,
               "avatarUrls": {
                  "16x16": "https://secure.gravatar.com/avatar/d670d6a6170ea3e38e0c9940a8c88dce?d=mm&s=16",
                  "24x24": "https://secure.gravatar.com/avatar/d670d6a6170ea3e38e0c9940a8c88dce?d=mm&s=24",
                  "32x32": "https://secure.gravatar.com/avatar/d670d6a6170ea3e38e0c9940a8c88dce?d=mm&s=32",
                  "48x48": "https://secure.gravatar.com/avatar/d670d6a6170ea3e38e0c9940a8c88dce?d=mm&s=48"
               },
               "displayName": "GitLab Tests",
               "emailAddress": "eslatt@gitlab.com",
               "key": "gitlab.tests",
               "name": "GitLab.tests",
               "self": "https://edjira.ddns.net/rest/api/2/user?username=GitLab.tests",
               "timeZone": "US/Eastern"
            }
         },
         "id": "27921",
         "key": "JIC-1",
         "self": "https://edjira.ddns.net/rest/api/2/issue/27921"
      }
   ],
   "maxResults": 1,
   "startAt": 0,
   "total": 1
}
eslatt@gitlab.com
142317923dccdf1f62c7796bd1edae8687ef9793
JIC-1 JIC-22133
['JIC-1', 'JIC-22133']
JIC-1
id=JIC-1
{
   "expand": "names,schema",
   "issues": [
      {
         "expand": "operations,editmeta,changelog,transitions,renderedFields",
         "fields": {
            "assignee": {
               "active": true,
               "avatarUrls": {
                  "16x16": "https://secure.gravatar.com/avatar/d670d6a6170ea3e38e0c9940a8c88dce?d=mm&s=16",
                  "24x24": "https://secure.gravatar.com/avatar/d670d6a6170ea3e38e0c9940a8c88dce?d=mm&s=24",
                  "32x32": "https://secure.gravatar.com/avatar/d670d6a6170ea3e38e0c9940a8c88dce?d=mm&s=32",
                  "48x48": "https://secure.gravatar.com/avatar/d670d6a6170ea3e38e0c9940a8c88dce?d=mm&s=48"
               },
               "displayName": "GitLab Tests",
               "emailAddress": "eslatt@gitlab.com",
               "key": "gitlab.tests",
               "name": "GitLab.tests",
               "self": "https://edjira.ddns.net/rest/api/2/user?username=GitLab.tests",
               "timeZone": "US/Eastern"
            }
         },
         "id": "27921",
         "key": "JIC-1",
         "self": "https://edjira.ddns.net/rest/api/2/issue/27921"
      }
   ],
   "maxResults": 1,
   "startAt": 0,
   "total": 1
}
eslatt@gitlab.com
9c732088f355b40cc1dce7ce59e7a60f839bbd4d
JIC-1 JIC-2
['JIC-1', 'JIC-2']
JIC-1
id=JIC-1
{
   "expand": "names,schema",
   "issues": [
      {
         "expand": "operations,editmeta,changelog,transitions,renderedFields",
         "fields": {
            "assignee": {
               "active": true,
               "avatarUrls": {
                  "16x16": "https://secure.gravatar.com/avatar/d670d6a6170ea3e38e0c9940a8c88dce?d=mm&s=16",
                  "24x24": "https://secure.gravatar.com/avatar/d670d6a6170ea3e38e0c9940a8c88dce?d=mm&s=24",
                  "32x32": "https://secure.gravatar.com/avatar/d670d6a6170ea3e38e0c9940a8c88dce?d=mm&s=32",
                  "48x48": "https://secure.gravatar.com/avatar/d670d6a6170ea3e38e0c9940a8c88dce?d=mm&s=48"
               },
               "displayName": "GitLab Tests",
               "emailAddress": "eslatt@gitlab.com",
               "key": "gitlab.tests",
               "name": "GitLab.tests",
               "self": "https://edjira.ddns.net/rest/api/2/user?username=GitLab.tests",
               "timeZone": "US/Eastern"
            }
         },
         "id": "27921",
         "key": "JIC-1",
         "self": "https://edjira.ddns.net/rest/api/2/issue/27921"
      }
   ],
   "maxResults": 1,
   "startAt": 0,
   "total": 1
}
eslatt@gitlab.com
