Jira Issue Check
83f7ecf5a156d092333b2cdccbe877d87b8e8fab
{
   "author_validator_enabled": false,
   "jira_issue_check_enabled": true,
   "jira_jql": "",
   "verbose": true
}


['83f7ecf5a156d092333b2cdccbe877d87b8e8fab']
83f7ecf5a156d092333b2cdccbe877d87b8e8fab
JIC-1 includes lamb work; author_validator_enabled false
['JIC-1']
JIC-1
id=JIC-1
{
   "expand": "names,schema",
   "issues": [
      {
         "expand": "operations,editmeta,changelog,transitions,renderedFields",
         "fields": {
            "assignee": {
               "active": true,
               "avatarUrls": {
                  "16x16": "https://secure.gravatar.com/avatar/d670d6a6170ea3e38e0c9940a8c88dce?d=mm&s=16",
                  "24x24": "https://secure.gravatar.com/avatar/d670d6a6170ea3e38e0c9940a8c88dce?d=mm&s=24",
                  "32x32": "https://secure.gravatar.com/avatar/d670d6a6170ea3e38e0c9940a8c88dce?d=mm&s=32",
                  "48x48": "https://secure.gravatar.com/avatar/d670d6a6170ea3e38e0c9940a8c88dce?d=mm&s=48"
               },
               "displayName": "GitLab Tests",
               "emailAddress": "eslatt@gitlab.com",
               "key": "gitlab.tests",
               "name": "GitLab.tests",
               "self": "https://edjira.ddns.net/rest/api/2/user?username=GitLab.tests",
               "timeZone": "US/Eastern"
            }
         },
         "id": "27921",
         "key": "JIC-1",
         "self": "https://edjira.ddns.net/rest/api/2/issue/27921"
      }
   ],
   "maxResults": 1,
   "startAt": 0,
   "total": 1
}
eslatt@gitlab.com
